SIM/nonpipe/LOG/adder/cla32.log
Command: vcs -kdb -R -full64 -sverilog +v2k +notimingcheck -debug_acc +nospecify \
+vcs+flush+all -debug_access -l compile.log ./testbench/tb_adder.sv ../../RTL/adder/RCA32.v \
../../RTL/adder/CLA32.v ../../RTL/adder/MCLA32.v ../../RTL/adder/FA.v ../../RTL/adder/HA.v \
+define+CLA32
*** Using c compiler gcc instead of cc ...
                         Chronologic VCS (TM)
         Version V-2023.12_Full64 -- Thu Mar 27 13:39:42 2025

                    Copyright (c) 1991 - 2023 Synopsys, Inc.
   This software and the associated documentation are proprietary to Synopsys,
 Inc. This software may only be used in accordance with the terms and conditions
 of a written license agreement with Synopsys, Inc. All other use, reproduction,
   or distribution of this software is strictly prohibited.  Licensed Products
     communicate with Synopsys servers for the purpose of providing software
    updates, detecting software piracy and verifying that customers are using
    Licensed Products in conformity with the applicable License Key for such
  Licensed Products. Synopsys will use information gathered in connection with
    this process to deliver software updates and pursue software pirates and
                                   infringers.

 Inclusivity & Diversity - Visit SolvNetPlus to read the "Synopsys Statement on
            Inclusivity and Diversity" (Refer to article 000036315 at
                        https://solvnetplus.synopsys.com)

Parsing design file './testbench/tb_adder.sv'
Parsing design file '../../RTL/adder/RCA32.v'
Parsing design file '../../RTL/adder/CLA32.v'
Parsing design file '../../RTL/adder/MCLA32.v'
Parsing design file '../../RTL/adder/FA.v'
Parsing design file '../../RTL/adder/HA.v'
Top Level Modules:
       tb_adder
       RCA32
       CLA4
       MCLA32
TimeScale is 1 ns / 100 ps
Starting vcs inline pass...

7 modules and 0 UDP read.
recompiling module tb_adder
recompiling module RCA32
recompiling module CLA8
recompiling module CLA4
recompiling module MCLA32
recompiling module MCLA8
6 of 7 modules done
	However, due to incremental compilation, only 6 modules need to be compiled. 
make[1]: Entering directory '/home/jorjor/Projects/mips/SIM/nonpipe/csrc'
rm -f _cuarc*.so _csrc*.so pre_vcsobj_*.so share_vcsobj_*.so
if [ -x ../simv ]; then chmod a-x ../simv; fi
g++  -o ../simv      -rdynamic  -Wl,-rpath='$ORIGIN'/simv.daidir -Wl,-rpath=./simv.daidir \
-Wl,-rpath=/usr/cad/synopsys/vcs/2023.12/linux64/lib -L/usr/cad/synopsys/vcs/2023.12/linux64/lib \
-Wl,-rpath-link=./  /usr/lib64/libnuma.so.1   objs/amcQw_d.o   _623059_archive_1.so \
_prev_archive_1.so   SIM_l.o      rmapats_mop.o rmapats.o rmar.o rmar_nd.o  rmar_llvm_0_1.o \
rmar_llvm_0_0.o            -lvirsim -lerrorinf -lsnpsmalloc -lvfs    -lvcsnew -lsimprofile \
-luclinative /usr/cad/synopsys/vcs/2023.12/linux64/lib/vcs_tls.o   -Wl,-whole-archive \
-lvcsucli    -Wl,-no-whole-archive        _vcs_pli_stub_.o   /usr/cad/synopsys/vcs/2023.12/linux64/lib/vcs_save_restore_new.o \
/usr/cad/synopsys/verdi/2023.12/share/PLI/VCS/LINUX64/pli.a -ldl  -lc -lm -lpthread \
-ldl 
../simv up to date
make[1]: Leaving directory '/home/jorjor/Projects/mips/SIM/nonpipe/csrc'
Command: /home/jorjor/Projects/mips/SIM/nonpipe/./simv +v2k +notimingcheck +nospecify +vcs+flush+all -a compile.log +define+CLA32
Chronologic VCS simulator copyright 1991-2023
Contains Synopsys proprietary information.
Compiler version V-2023.12_Full64; Runtime version V-2023.12_Full64;  Mar 27 13:39 2025
=========================================
============= Testing CLA32 =============
=========================================
*Verdi* Loading libsscore_vcs202312.so
FSDB Dumper for VCS, Release Verdi_V-2023.12, Linux x86_64/64bit, 11/15/2023
(C) 1996 - 2023 by Synopsys, Inc.
*Verdi* FSDB WARNING: The FSDB file already exists. Overwriting the FSDB file may crash the programs that are using this file.
*Verdi* : Create FSDB file 'novas.fsdb'
*Verdi* : Begin traversing the scopes, layer (0).
*Verdi* : End of traversing.
PASS  ! a =  303379748, b = 3230228097, cin = 1, {cout, sum} =  3533607846
PASS  ! a = 2985317987, b =  112818957, cin = 1, {cout, sum} =  3098136945
PASS  ! a = 2999092325, b = 2302104082, cin = 1, {cout, sum} =  5301196408
PASS  ! a =  114806029, b =  992211318, cin = 1, {cout, sum} =  1107017348
PASS  ! a = 1993627629, b = 1177417612, cin = 1, {cout, sum} =  3171045242
PASS  ! a = 3812041926, b = 3807872197, cin = 0, {cout, sum} =  7619914123
PASS  ! a = 1924134885, b = 3151131255, cin = 0, {cout, sum} =  5075266140
PASS  ! a = 1206705039, b = 2033215986, cin = 0, {cout, sum} =  3239921025
PASS  ! a = 4093672168, b = 3804909253, cin = 0, {cout, sum} =  7898581421
PASS  ! a = 3733858493, b = 2527811629, cin = 1, {cout, sum} =  6261670123
PASS  ! a = 2985255523, b =   91457290, cin = 0, {cout, sum} =  3076712813
PASS  ! a =  274997536, b = 1433945514, cin = 1, {cout, sum} =  1708943051
PASS  ! a = 3407888022, b = 2307110931, cin = 1, {cout, sum} =  5714998954
PASS  ! a = 2846348883, b =  899669355, cin = 1, {cout, sum} =  3746018239
PASS  ! a = 2165787138, b = 3612753582, cin = 1, {cout, sum} =  5778540721
PASS  ! a = 3888476879, b =  293882147, cin = 0, {cout, sum} =  4182359026
PASS  ! a = 3849521866, b = 2654030908, cin = 0, {cout, sum} =  6503552774
PASS  ! a = 1160667530, b =  549761857, cin = 0, {cout, sum} =  1710429387
PASS  ! a = 1008792440, b = 3297383049, cin = 1, {cout, sum} =  4306175490
PASS  ! a = 1526883766, b = 1665923526, cin = 0, {cout, sum} =  3192807292
PASS  ! a = 3732210364, b =  353361194, cin = 1, {cout, sum} =  4085571559
PASS  ! a = 3096952433, b = 1123172741, cin = 1, {cout, sum} =  4220125175
PASS  ! a = 2647416891, b =  486945594, cin = 0, {cout, sum} =  3134362485
PASS  ! a =  178932501, b = 2027527153, cin = 1, {cout, sum} =  2206459655
PASS  ! a =  824379234, b =  641071948, cin = 1, {cout, sum} =  1465451183
PASS  ! a = 1203347855, b = 2087561720, cin = 1, {cout, sum} =  3290909576
PASS  ! a = 3485750943, b = 2927465564, cin = 1, {cout, sum} =  6413216508
PASS  ! a = 1155413897, b = 2762879561, cin = 0, {cout, sum} =  3918293458
PASS  ! a = 3959341271, b = 2831678545, cin = 0, {cout, sum} =  6791019816
PASS  ! a =  102596364, b = 3777810114, cin = 0, {cout, sum} =  3880406478
PASS  ! a = 3145882231, b =  519236925, cin = 0, {cout, sum} =  3665119156
PASS  ! a = 3204776062, b =  921010541, cin = 1, {cout, sum} =  4125786604
PASS  ! a =  265457439, b = 3924555475, cin = 1, {cout, sum} =  4190012915
PASS  ! a = 3155462264, b =  769284443, cin = 1, {cout, sum} =  3924746708
PASS  ! a = 2683481663, b =  353152810, cin = 0, {cout, sum} =  3036634473
PASS  ! a = 3275700358, b = 3340373134, cin = 0, {cout, sum} =  6616073492
PASS  ! a = 2100664826, b = 2474490918, cin = 1, {cout, sum} =  4575155745
PASS  ! a = 3515593891, b = 2543429679, cin = 1, {cout, sum} =  6059023571
PASS  ! a = 2950190687, b =  573115716, cin = 1, {cout, sum} =  3523306404
PASS  ! a = 3852154571, b = 4077460198, cin = 0, {cout, sum} =  7929614769
PASS  ! a =  349159721, b = 4135772909, cin = 0, {cout, sum} =  4484932630
PASS  ! a = 2996811365, b = 3666535093, cin = 1, {cout, sum} =  6663346459
PASS  ! a = 1022433657, b =  573701956, cin = 0, {cout, sum} =  1596135613
PASS  ! a =  352914218, b = 1442229675, cin = 0, {cout, sum} =  1795143893
PASS  ! a = 1851633116, b = 3445537946, cin = 1, {cout, sum} =  5297171063
PASS  ! a = 3790668483, b =  722398550, cin = 0, {cout, sum} =  4513067033
PASS  ! a = 3017373287, b = 2234594314, cin = 0, {cout, sum} =  5251967601
PASS  ! a = 2618198584, b = 1020364665, cin = 0, {cout, sum} =  3638563249
PASS  ! a = 1249165204, b = 1237736851, cin = 0, {cout, sum} =  2486902055
PASS  ! a = 2897726041, b = 1842047451, cin = 1, {cout, sum} =  4739773493
PASS  ! a = 1823520729, b = 3064211053, cin = 0, {cout, sum} =  4887731782
PASS  ! a = 1698384330, b = 1528245686, cin = 1, {cout, sum} =  3226630017
PASS  ! a = 2735151686, b =   41196292, cin = 1, {cout, sum} =  2776347979
PASS  ! a =  882378601, b = 3664689844, cin = 0, {cout, sum} =  4547068445
PASS  ! a =  343726376, b = 2526020653, cin = 1, {cout, sum} =  2869747030
PASS  ! a = 2539428910, b = 2222449672, cin = 0, {cout, sum} =  4761878582
PASS  ! a = 4272400125, b =  345900841, cin = 0, {cout, sum} =  4618300966
PASS  ! a = 1127573382, b = 3979610330, cin = 1, {cout, sum} =  5107183713
PASS  ! a =  860792678, b = 3092628592, cin = 1, {cout, sum} =  3953421271
PASS  ! a = 1567726010, b =  792376158, cin = 0, {cout, sum} =  2360102168
PASS  ! a = 1787692501, b = 2368009754, cin = 1, {cout, sum} =  4155702256
PASS  ! a =  461857079, b = 1260861334, cin = 0, {cout, sum} =  1722718413
PASS  ! a =  321232678, b = 3678804662, cin = 1, {cout, sum} =  4000037341
PASS  ! a = 1851723740, b = 1130452870, cin = 0, {cout, sum} =  2982176610
PASS  ! a = 1062902654, b = 3985473755, cin = 1, {cout, sum} =  5048376410
PASS  ! a = 1022176121, b = 4247315706, cin = 1, {cout, sum} =  5269491828
PASS  ! a =  194251031, b = 3505748129, cin = 0, {cout, sum} =  3699999160
PASS  ! a = 2825098832, b = 2056018421, cin = 1, {cout, sum} =  4881117254
PASS  ! a = 2493155881, b = 1622242753, cin = 1, {cout, sum} =  4115398635
PASS  ! a = 3422663832, b =  632453963, cin = 1, {cout, sum} =  4055117796
PASS  ! a = 4129482476, b = 3310360202, cin = 0, {cout, sum} =  7439842678
PASS  ! a = 3561717928, b = 1419705769, cin = 1, {cout, sum} =  4981423698
PASS  ! a =  118208782, b = 4080297702, cin = 1, {cout, sum} =  4198506485
PASS  ! a =  355448106, b =  358227242, cin = 1, {cout, sum} =   713675349
PASS  ! a = 1333133214, b = 2624448056, cin = 1, {cout, sum} =  3957581271
PASS  ! a = 1684333512, b = 1696810442, cin = 1, {cout, sum} =  3381143955
PASS  ! a =  899729771, b = 3820465863, cin = 0, {cout, sum} =  4720195634
PASS  ! a = 1560649146, b = 1645652932, cin = 1, {cout, sum} =  3206302079
PASS  ! a = 1227871122, b = 3659963060, cin = 1, {cout, sum} =  4887834183
PASS  ! a = 3274936454, b = 2104358394, cin = 0, {cout, sum} =  5379294848
PASS  ! a =  423960882, b = 3738066621, cin = 0, {cout, sum} =  4162027503
PASS  ! a = 4064912612, b = 1698942922, cin = 1, {cout, sum} =  5763855535
PASS  ! a = 3499468961, b = 1197844878, cin = 1, {cout, sum} =  4697313840
PASS  ! a = 2246385163, b = 4152529135, cin = 1, {cout, sum} =  6398914299
PASS  ! a =  459334966, b = 3132180597, cin = 1, {cout, sum} =  3591515564
PASS  ! a =  902676331, b = 1147529096, cin = 0, {cout, sum} =  2050205427
PASS  ! a = 1307804059, b = 1228817810, cin = 0, {cout, sum} =  2536621869
PASS  ! a = 2525290541, b =  632774475, cin = 0, {cout, sum} =  3158065016
PASS  ! a = 2401039902, b =  112395533, cin = 0, {cout, sum} =  2513435435
PASS  ! a =  201563416, b = 1756240849, cin = 0, {cout, sum} =  1957804265
PASS  ! a = 2696946753, b = 2646565947, cin = 0, {cout, sum} =  5343512700
PASS  ! a =  703588691, b = 2870567510, cin = 1, {cout, sum} =  3574156202
PASS  ! a = 4050057954, b = 2188632580, cin = 1, {cout, sum} =  6238690535
PASS  ! a = 3964712152, b =  155077906, cin = 0, {cout, sum} =  4119790058
PASS  ! a = 2625704505, b = 4068980453, cin = 1, {cout, sum} =  6694684959
PASS  ! a =  361303851, b = 1083202945, cin = 0, {cout, sum} =  1444506796
PASS  ! a =  330650919, b = 1356200353, cin = 1, {cout, sum} =  1686851273
PASS  ! a = 2183281156, b =  741155672, cin = 0, {cout, sum} =  2924436828
PASS  ! a =  175018772, b = 2300163090, cin = 0, {cout, sum} =  2475181862
PASS  ! a = 3635208881, b =  717411669, cin = 1, {cout, sum} =  4352620551
PASS  ! a =  361442091, b = 2058427381, cin = 1, {cout, sum} =  2419869473
PASS  ! a = 2478907943, b = 1112145796, cin = 1, {cout, sum} =  3591053740
PASS  ! a = 4090996455, b = 3706687673, cin = 1, {cout, sum} =  7797684129
PASS  ! a = 1843772379, b = 1689915337, cin = 1, {cout, sum} =  3533687717
PASS  ! a = 3502005921, b =  356965674, cin = 0, {cout, sum} =  3858971595
PASS  ! a = 2732990533, b = 1101071747, cin = 0, {cout, sum} =  3834062280
PASS  ! a = 3108377714, b = 4283383038, cin = 0, {cout, sum} =  7391760752
PASS  ! a = 3084888687, b = 1128664454, cin = 0, {cout, sum} =  4213553141
PASS  ! a =  477206328, b =  544641344, cin = 0, {cout, sum} =  1021847672
PASS  ! a = 2064493046, b = 3804175045, cin = 0, {cout, sum} =  5868668091
PASS  ! a =  979525492, b =  484340025, cin = 0, {cout, sum} =  1463865517
PASS  ! a =  505186108, b =  354521898, cin = 0, {cout, sum} =   859708006
PASS  ! a =  183252245, b = 4038151905, cin = 1, {cout, sum} =  4221404151
PASS  ! a = 2710302275, b = 1689641929, cin = 0, {cout, sum} =  4399944204
PASS  ! a =  311937829, b = 1626774977, cin = 1, {cout, sum} =  1938712807
PASS  ! a = 2909266522, b =   64366343, cin = 0, {cout, sum} =  2973632865
PASS  ! a =  101342476, b = 3098404465, cin = 1, {cout, sum} =  3199746942
PASS  ! a = 1533076918, b = 4225745655, cin = 0, {cout, sum} =  5758822573
PASS  ! a = 2927122524, b =  716765013, cin = 0, {cout, sum} =  3643887537
PASS  ! a = 3490386592, b =  962595186, cin = 0, {cout, sum} =  4452981778
PASS  ! a = 1854600669, b = 2262626317, cin = 1, {cout, sum} =  4117226987
PASS  ! a = 3167502969, b = 3479427742, cin = 1, {cout, sum} =  6646930712
PASS  ! a = 3185627771, b = 1206023055, cin = 1, {cout, sum} =  4391650827
PASS  ! a = 1908484579, b =  244466461, cin = 1, {cout, sum} =  2152951041
PASS  ! a =  571580228, b = 3399269525, cin = 0, {cout, sum} =  3970849753
PASS  ! a = 4137777389, b =  695866706, cin = 0, {cout, sum} =  4833644095
PASS  ! a = 1188870029, b = 2841625682, cin = 0, {cout, sum} =  4030495711
PASS  ! a =  594214214, b = 3325727372, cin = 0, {cout, sum} =  3919941586
PASS  ! a =  199934231, b =  892166506, cin = 0, {cout, sum} =  1092100737
PASS  ! a = 3579559082, b = 1047465852, cin = 0, {cout, sum} =  4627024934
PASS  ! a = 1565150650, b = 3315687563, cin = 0, {cout, sum} =  4880838213
PASS  ! a = 2458066469, b =  419791666, cin = 0, {cout, sum} =  2877858135
PASS  ! a = 2760866889, b = 2321854484, cin = 1, {cout, sum} =  5082721374
PASS  ! a =  636617547, b = 2926063708, cin = 1, {cout, sum} =  3562681256
PASS  ! a = 1128175494, b = 2628745785, cin = 0, {cout, sum} =  3756921279
PASS  ! a = 1750197712, b = 2518831148, cin = 0, {cout, sum} =  4269028860
PASS  ! a =   65648391, b = 3038920810, cin = 1, {cout, sum} =  3104569202
PASS  ! a = 1953169384, b = 2783419979, cin = 1, {cout, sum} =  4736589364
PASS  ! a = 1982421996, b =  301860131, cin = 0, {cout, sum} =  2284282127
PASS  ! a = 1692493257, b = 2628191289, cin = 1, {cout, sum} =  4320684547
PASS  ! a = 3931641044, b =  864249191, cin = 1, {cout, sum} =  4795890236
PASS  ! a = 1479615920, b = 1091582338, cin = 1, {cout, sum} =  2571198259
PASS  ! a = 3971554009, b =  268482336, cin = 0, {cout, sum} =  4240036345
PASS  ! a = 1236365203, b = 1907646947, cin = 0, {cout, sum} =  3144012150
PASS  ! a = 3832674504, b = 2933337693, cin = 0, {cout, sum} =  6766012197
PASS  ! a = 1109830020, b = 2510923819, cin = 1, {cout, sum} =  3620753840
PASS  ! a = 2306808850, b = 2843672658, cin = 1, {cout, sum} =  5150481509
PASS  ! a = 3895170768, b = 3076123246, cin = 1, {cout, sum} =  6971294015
PASS  ! a = 1837860827, b = 1397913510, cin = 1, {cout, sum} =  3235774338
PASS  ! a = 2155445248, b = 2279885839, cin = 1, {cout, sum} =  4435331088
PASS  ! a = 2253611532, b =  749214041, cin = 1, {cout, sum} =  3002825574
PASS  ! a = 1742157263, b = 1211753872, cin = 1, {cout, sum} =  2953911136
PASS  ! a = 3036259433, b =  998493559, cin = 0, {cout, sum} =  4034752992
PASS  ! a = 3963050200, b = 1306348955, cin = 0, {cout, sum} =  5269399155
PASS  ! a = 1551413688, b = 3689345719, cin = 0, {cout, sum} =  5240759407
PASS  ! a = 2555206192, b = 1005409143, cin = 1, {cout, sum} =  3560615336
PASS  ! a = 1779824084, b =   59213575, cin = 0, {cout, sum} =  1839037659
PASS  ! a = 1956752873, b = 1172474763, cin = 1, {cout, sum} =  3129227637
PASS  ! a = 1837140955, b = 3228975744, cin = 0, {cout, sum} =  5066116699
PASS  ! a = 3807173317, b = 2552756784, cin = 1, {cout, sum} =  6359930102
PASS  ! a = 3003308646, b = 1476114863, cin = 1, {cout, sum} =  4479423510
PASS  ! a = 2084679672, b = 2205592582, cin = 1, {cout, sum} =  4290272255
PASS  ! a = 1894725601, b = 3400826005, cin = 0, {cout, sum} =  5295551606
PASS  ! a =  810437984, b = 4070334181, cin = 0, {cout, sum} =  4880772165
PASS  ! a =  841973092, b =  347354921, cin = 1, {cout, sum} =  1189328014
PASS  ! a = 3149681271, b =  924128622, cin = 1, {cout, sum} =  4073809894
PASS  ! a = 1788852693, b =  876074344, cin = 0, {cout, sum} =  2664927037
PASS  ! a = 3581411498, b =  127910671, cin = 1, {cout, sum} =  3709322170
PASS  ! a = 3197877373, b = 1194235278, cin = 0, {cout, sum} =  4392112651
PASS  ! a =  510020924, b = 3568690857, cin = 1, {cout, sum} =  4078711782
PASS  ! a = 2917650523, b = 3617733807, cin = 0, {cout, sum} =  6535384330
PASS  ! a = 1557269945, b =  160312595, cin = 1, {cout, sum} =  1717582541
PASS  ! a =  853295461, b =  684074833, cin = 1, {cout, sum} =  1537370295
PASS  ! a = 3432517785, b = 2635204666, cin = 1, {cout, sum} =  6067722452
PASS  ! a =  830211938, b = 4063587044, cin = 0, {cout, sum} =  4893798982
PASS  ! a = 3201975421, b =  753819481, cin = 1, {cout, sum} =  3955794903
PASS  ! a = 1994288109, b = 3836215497, cin = 1, {cout, sum} =  5830503607
PASS  ! a = 1472319919, b = 3987152091, cin = 1, {cout, sum} =  5459472011
PASS  ! a =  940810096, b = 2200359942, cin = 0, {cout, sum} =  3141170038
PASS  ! a = 1587035581, b = 3042303594, cin = 0, {cout, sum} =  4629339175
PASS  ! a = 2825674320, b = 3179738235, cin = 1, {cout, sum} =  6005412556
PASS  ! a = 3158279288, b = 2071693814, cin = 0, {cout, sum} =  5229973102
PASS  ! a =  298621731, b = 1018407801, cin = 0, {cout, sum} =  1317029532
PASS  ! a = 3721479867, b = 2265771534, cin = 1, {cout, sum} =  5987251402
PASS  ! a =  108069644, b = 3876559054, cin = 0, {cout, sum} =  3984628698
PASS  ! a = 2901204057, b = 1554149305, cin = 1, {cout, sum} =  4455353363
PASS  ! a = 2052046836, b = 3136610933, cin = 0, {cout, sum} =  5188657769
PASS  ! a = 2633792057, b =   24285954, cin = 1, {cout, sum} =  2658078012
PASS  ! a =   50067717, b =  656163662, cin = 0, {cout, sum} =   706231379
PASS  ! a = 1551454648, b = 2222961160, cin = 1, {cout, sum} =  3774415809
PASS  ! a = 3618934447, b = 1953706472, cin = 0, {cout, sum} =  5572640919
PASS  ! a = 2062986229, b = 2787151948, cin = 1, {cout, sum} =  4850138178
PASS  ! a = 2684724800, b =  313066277, cin = 1, {cout, sum} =  2997791078
PASS  ! a = 3095138416, b =  382466349, cin = 1, {cout, sum} =  3477604766
PASS  ! a = 1579504060, b = 2558199856, cin = 0, {cout, sum} =  4137703916
PASS  ! a =  678848848, b = 3503254177, cin = 1, {cout, sum} =  4182103026
PASS  ! a = 4210241269, b = 2055712757, cin = 1, {cout, sum} =  6265954027
PASS  ! a = 3393720980, b = 3042485866, cin = 0, {cout, sum} =  6436206846
PASS  ! a = 3695380664, b = 3476069534, cin = 0, {cout, sum} =  7171450198
PASS  ! a =  591399750, b = 2214224903, cin = 1, {cout, sum} =  2805624654
PASS  ! a = 2866443349, b = 1540610999, cin = 1, {cout, sum} =  4407054349
PASS  ! a = 2977958499, b = 2895372377, cin = 0, {cout, sum} =  5873330876
PASS  ! a = 3024713320, b = 2405688350, cin = 0, {cout, sum} =  5430401670
PASS  ! a =  756655450, b =  239306012, cin = 1, {cout, sum} =   995961463
PASS  ! a = 1434853291, b = 1747376592, cin = 1, {cout, sum} =  3182229884
PASS  ! a = 1818914264, b = 2731313221, cin = 1, {cout, sum} =  4550227486
PASS  ! a = 1173562251, b = 2116325884, cin = 0, {cout, sum} =  3289888135
PASS  ! a = 3531541156, b =  211258649, cin = 1, {cout, sum} =  3742799806
PASS  ! a = 2671349310, b = 4186685683, cin = 0, {cout, sum} =  6858034993
PASS  ! a = 1644522436, b =  775308124, cin = 0, {cout, sum} =  2419830560
PASS  ! a = 3441250458, b =  202774808, cin = 1, {cout, sum} =  3644025267
PASS  ! a = 1427493290, b =  219284250, cin = 1, {cout, sum} =  1646777541
PASS  ! a = 1496639922, b =  104030988, cin = 1, {cout, sum} =  1600670911
PASS  ! a = 1641741763, b = 1974301675, cin = 0, {cout, sum} =  3616043438
PASS  ! a = 2032927730, b = 1149480329, cin = 1, {cout, sum} =  3182408060
PASS  ! a =  232868635, b = 3600885933, cin = 0, {cout, sum} =  3833754568
PASS  ! a = 2465796645, b = 1743280079, cin = 1, {cout, sum} =  4209076725
PASS  ! a = 2375340571, b = 3225108096, cin = 1, {cout, sum} =  5600448668
PASS  ! a = 1093533058, b = 2184462852, cin = 1, {cout, sum} =  3277995911
PASS  ! a =  456559414, b =  426378034, cin = 1, {cout, sum} =   882937449
PASS  ! a = 4065046244, b = 2336418838, cin = 0, {cout, sum} =  6401465082
PASS  ! a = 1615881664, b = 2539227182, cin = 0, {cout, sum} =  4155108846
PASS  ! a = 3099640433, b = 2113835003, cin = 0, {cout, sum} =  5213475436
PASS  ! a = 4000344284, b =  200038167, cin = 1, {cout, sum} =  4200382452
PASS  ! a = 1979392491, b = 1520253877, cin = 1, {cout, sum} =  3499646369
PASS  ! a = 3350389391, b = 3757504191, cin = 0, {cout, sum} =  7107893582
PASS  ! a = 3920927443, b = 3944547030, cin = 0, {cout, sum} =  7865474473
PASS  ! a =  224621850, b =  954640241, cin = 1, {cout, sum} =  1179262092
PASS  ! a = 2271383054, b = 4173796593, cin = 1, {cout, sum} =  6445179648
PASS  ! a =   45957893, b =  238742300, cin = 0, {cout, sum} =   284700193
PASS  ! a = 4134570220, b = 2504119850, cin = 1, {cout, sum} =  6638690071
PASS  ! a =  462554423, b = 2180658691, cin = 0, {cout, sum} =  2643213114
PASS  ! a = 4272807165, b = 2675576382, cin = 0, {cout, sum} =  6948383547
PASS  ! a = 3126868084, b = 1477020080, cin = 0, {cout, sum} =  4603888164
PASS  ! a =  152456466, b = 3026910312, cin = 1, {cout, sum} =  3179366779
PASS  ! a = 4280299262, b =  453971254, cin = 1, {cout, sum} =  4734270517
PASS  ! a = 2111679483, b = 3045948523, cin = 1, {cout, sum} =  5157628007
PASS  ! a = 2278569487, b = 2319955476, cin = 0, {cout, sum} =  4598524963
PASS  ! a = 3546705574, b = 3933611732, cin = 1, {cout, sum} =  7480317307
PASS  ! a = 3045573227, b =   41413380, cin = 0, {cout, sum} =  3086986607
PASS  ! a = 1183539597, b = 4041896161, cin = 1, {cout, sum} =  5225435759
PASS  ! a = 3701044409, b = 3839825609, cin = 0, {cout, sum} =  7540870018
PASS  ! a = 2741252678, b =  510970684, cin = 1, {cout, sum} =  3252223363
PASS  ! a =  739005784, b =  970348403, cin = 0, {cout, sum} =  1709354187
PASS  ! a = 1852646364, b =  406831920, cin = 0, {cout, sum} =  2259478284
PASS  ! a =    7595264, b =  562171715, cin = 0, {cout, sum} =   569766979
PASS  ! a = 3501824673, b =  700456787, cin = 0, {cout, sum} =  4202281460
PASS  ! a =  804207967, b = 3284046471, cin = 0, {cout, sum} =  4088254438
PASS  ! a =  379179309, b = 3094741616, cin = 1, {cout, sum} =  3473920926
PASS  ! a = 2564241457, b = 2301607954, cin = 0, {cout, sum} =  4865849411
PASS  ! a =  115043085, b =  181211925, cin = 0, {cout, sum} =   296255010
PASS  ! a = 1248038292, b =  706454356, cin = 0, {cout, sum} =  1954492648
PASS  ! a =  160240915, b = 3789784771, cin = 1, {cout, sum} =  3950025687
PASS  ! a = 3998148316, b = 3161985144, cin = 1, {cout, sum} =  7160133461
PASS  ! a = 2951554655, b =  297818915, cin = 1, {cout, sum} =  3249373571
PASS  ! a =  474093368, b =  290671906, cin = 1, {cout, sum} =   764765275
PASS  ! a = 3823848647, b = 3242222210, cin = 0, {cout, sum} =  7066070857
PASS  ! a = 3817743047, b = 2457838628, cin = 1, {cout, sum} =  6275581676
PASS  ! a = 2221216776, b =  985821045, cin = 1, {cout, sum} =  3207037822
PASS  ! a = 2373808666, b =  472519480, cin = 0, {cout, sum} =  2846328146
PASS  ! a = 2886049880, b = 2824497744, cin = 1, {cout, sum} =  5710547625
PASS  ! a = 1380180900, b =  851697509, cin = 0, {cout, sum} =  2231878409
PASS  ! a =   57686278, b = 2853404756, cin = 1, {cout, sum} =  2911091035
PASS  ! a = 3830837448, b =  610744648, cin = 1, {cout, sum} =  4441582097
PASS  ! a = 2082337784, b = 3666424501, cin = 1, {cout, sum} =  5748762286
PASS  ! a = 1101976963, b = 1302258587, cin = 1, {cout, sum} =  2404235551
PASS  ! a = 1477858224, b = 4259283707, cin = 1, {cout, sum} =  5737141932
PASS  ! a = 2555225648, b = 2352530456, cin = 1, {cout, sum} =  4907756105
PASS  ! a = 2741692486, b =  820121441, cin = 1, {cout, sum} =  3561813928
PASS  ! a =  720466773, b =  395024175, cin = 1, {cout, sum} =  1115490949
PASS  ! a = 4011715294, b = 3922865363, cin = 0, {cout, sum} =  7934580657
PASS  ! a = 1960602089, b =  743930200, cin = 1, {cout, sum} =  2704532290
PASS  ! a = 1641801155, b = 1781273556, cin = 0, {cout, sum} =  3423074711
PASS  ! a = 1059450750, b = 1797889494, cin = 1, {cout, sum} =  2857340245
PASS  ! a = 3249554563, b = 1349185440, cin = 0, {cout, sum} =  4598740003
PASS  ! a = 1608764351, b =  585816901, cin = 1, {cout, sum} =  2194581253
PASS  ! a =  580717381, b = 3130265717, cin = 0, {cout, sum} =  3710983098
PASS  ! a = 1664236486, b =  906058092, cin = 0, {cout, sum} =  2570294578
PASS  ! a =  415064881, b = 3457220252, cin = 0, {cout, sum} =  3872285133
PASS  ! a = 3621985967, b = 2267884558, cin = 1, {cout, sum} =  5889870526
PASS  ! a = 3646636210, b = 4011892446, cin = 1, {cout, sum} =  7658528657
PASS  ! a = 1432096682, b =  336064808, cin = 0, {cout, sum} =  1768161490
PASS  ! a = 1293945242, b = 1776767443, cin = 0, {cout, sum} =  3070712685
PASS  ! a = 4260068603, b = 3318706827, cin = 0, {cout, sum} =  7578775430
PASS  ! a = 3863488716, b =  954602353, cin = 0, {cout, sum} =  4818091069
PASS  ! a =  815586145, b = 3185789051, cin = 1, {cout, sum} =  4001375197
PASS  ! a = 3363945617, b = 3764426944, cin = 1, {cout, sum} =  7128372562
PASS  ! a = 3209933950, b =  706573140, cin = 1, {cout, sum} =  3916507091
PASS  ! a = 2766022729, b = 1945796071, cin = 0, {cout, sum} =  4711818800
PASS  ! a = 1102435715, b = 2918056027, cin = 1, {cout, sum} =  4020491743
PASS  ! a = 1258209173, b = 3146992247, cin = 1, {cout, sum} =  4405201421
PASS  ! a = 1932287974, b = 3621891759, cin = 0, {cout, sum} =  5554179733
PASS  ! a = 2305056786, b = 2116662268, cin = 1, {cout, sum} =  4421719055
PASS  ! a = 3791909060, b =  536576319, cin = 0, {cout, sum} =  4328485379
PASS  ! a =  965351795, b =  760060762, cin = 0, {cout, sum} =  1725412557
PASS  ! a = 4285778686, b =  973695860, cin = 1, {cout, sum} =  5259474547
PASS  ! a = 1899150306, b = 4050208994, cin = 1, {cout, sum} =  5949359301
PASS  ! a = 3423855256, b = 1339813279, cin = 0, {cout, sum} =  4763668535
PASS  ! a = 2031192562, b = 1592359869, cin = 1, {cout, sum} =  3623552432
PASS  ! a = 1510608820, b = 2852695124, cin = 1, {cout, sum} =  4363303945
PASS  ! a = 2310394899, b = 1443664300, cin = 1, {cout, sum} =  3754059200
PASS  ! a =  502669115, b = 2594186293, cin = 1, {cout, sum} =  3096855409
PASS  ! a =  442603828, b = 2866848341, cin = 0, {cout, sum} =  3309452169
PASS  ! a = 4184145650, b = 3556652711, cin = 1, {cout, sum} =  7740798362
PASS  ! a = 4063434468, b = 2696454721, cin = 1, {cout, sum} =  6759889190
PASS  ! a = 4250065146, b = 3869102285, cin = 1, {cout, sum} =  8119167432
PASS  ! a = 3670640309, b = 4095771368, cin = 1, {cout, sum} =  7766411678
PASS  ! a = 2298752530, b =  462917431, cin = 0, {cout, sum} =  2761669961
PASS  ! a = 4232881400, b = 2417511968, cin = 0, {cout, sum} =  6650393368
PASS  ! a = 2436760098, b = 1983075820, cin = 0, {cout, sum} =  4419835918
PASS  ! a = 1031756666, b =  253645086, cin = 1, {cout, sum} =  1285401753
PASS  ! a = 4121228011, b =   95745803, cin = 0, {cout, sum} =  4216973814
PASS  ! a = 2940558942, b = 1045441916, cin = 1, {cout, sum} =  3986000859
PASS  ! a = 3318437003, b =  155964178, cin = 1, {cout, sum} =  3474401182
